{
    "ciTypeId": 54,
    "ciTypeName": "Network",
    "ciTypePath": "|1||54|",
    "codeString": "321",
    "codeType": "code39",
    "depreciationTypeId": 3041,
    "depreciationTypeName": "wee",
    "description": "Lorem ipsum dolor sit amet, consectetur adipisicing elit, sed do eiusmod tempor incididunt ut labore et dolore magna aliqua. Ut enim ad minim veniam.",
    "id": 13060,
    "manufacturerId": 4,
    "manufacturerName": "Samsung",
    "name": "sve",
    "status": 1
}