{
    "address": "Vlaha Bukovca 48",
    "city": "Podgorica",
    "contactPerson": "Milos Baltic",
    "country": "Montenegro",
    "countryCode": 382,
    "description": "<ul><li>test</li><li>test</li><li>test</li></ul>",
    "fax": "+382 20 123 121",
    "id": 1114,
    "location": {
        "latitude": "12.43",
        "longitude": "41.23"
    },
    "latitude": "12.43",
    "longitude": "41.23",
    "mail": "milosbaltic@gmail.com",
    "mobile": "+382 68 123 456",
    "name": "Bild",
    "phone": "+382 20 123 123",
    "status": 1,
    "zip": 81000
}